{
  "apps" : [
    {
      "name"            : "xceltoken-server",
      "script"          : "server.js",
      "merge_logs"      : true,
      "watch"           : false,
      "ignore_watch"    : [
        ".certs",
        ".docker",
        "node_modules",
        ".idea",
        "npm-debug.log",
        ".node-xmlhttprequest-sync-*",
        ".git",
        "design",
        "public",
        "private-uploads",
        "lib/db-backups",
        "public",
        "npm-debug.log"],
      "log_date_format" : "YYYY-MM-DD HH:mm Z",
      "instances"  : 1,
      "exec_mode"  : "cluster",
      "env": {
        "PORT": 4000,
        "NODE_ENV": "production"
      },
      "env_production" : {
        "NODE_ENV": "production"
      },
      "env_staging" : {
        "NODE_ENV" : "staging"
      },
      "help"            : "http://pm2.keymetrics.io/docs/usage/application-declaration"
    }
  ]
}
